Homework 4
…
# Check the status of the response
if (status_code(response_search) == 200) {
  data <- content(response_search, "text")
  json_data <- jsonlite::fromJSON(data)
  #print(json_data)
  tech_info <- as_tibble(json_data$articles[, -1]) #since source has id and name I want to get rid of them
  print(tech_info)
} else {
  print(paste("Error:", status_code(response_search)))
}

# A tibble: 100 × 7
   author        title          description url   urlToImage publishedAt content
   <chr>         <chr>          <chr>       <chr> <chr>      <chr>       <chr>  
 1 Steven Levy   Don’t Let Mis… "It’s OK t… http… https://m… 2024-06-07… "It se…
 2 Will Knight   OpenAI Offers… "Days afte… http… https://m… 2024-06-06… "ChatG…
 3 Jason Parham  The Rebirth o… "Looking f… http… https://m… 2024-05-27… "One n…
 4 David Gilbert Neo-Nazis Are… "Extremist… http… https://m… 2024-06-20… "Extre…
 5 Lawrence Bonk Nokia just ma… "Nokia jus… http… <NA>       2024-06-10… "If yo…
 6 Emma Roth     Elon Musk dro… "Elon Musk… http… https://c… 2024-06-11… "Elon …
 7 Graeme Hanna  ‘Robot pill’ … "A cutting… http… https://r… 2024-06-25… "A cut…
 8 Matt Novak    AI Turns Clas… "Have you … http… https://i… 2024-06-17… "Have …
 9 Kyle Barr     Windows Is Ge… "Microsoft… http… https://i… 2024-06-07… "Micro…
10 Maxwell Zeff  May 'AI' Take… "McDonald’… http… https://i… 2024-06-17… "McDon…
# ℹ 90 more rows
…
#needed variables
api_key <- source("api_key.R")[[1]]
query_keyword <- "technology"

# Get the news articles
from_date1 <- "2024-06-15"
tech_info1 <- query_news_api(query_keyword, from_date1, api_key)

[1] "Total results: 21412"

print(tech_info1) #Seems like by default, the API returns a maximum of 100 articles per request only.

# A tibble: 100 × 7
   author              title    description url   urlToImage publishedAt content
   <chr>               <chr>    <chr>       <chr> <chr>      <chr>       <chr>  
 1 David Gilbert       Neo-Naz… "Extremist… http… https://m… 2024-06-20… "Extre…
 2 Graeme Hanna        ‘Robot … "A cutting… http… https://r… 2024-06-25… "A cut…
 3 Matt Novak          AI Turn… "Have you … http… https://i… 2024-06-17… "Have …
 4 Maxwell Zeff        May 'AI… "McDonald’… http… https://i… 2024-06-17… "McDon…
 5 Peter Guest         Europe … "With chat… http… https://m… 2024-06-20… "That …
 6 Matt Burgess        Amazon-… "CCTV came… http… https://m… 2024-06-17… "Netwo…
 7 Jake Epstein        Ground … "Ukraine i… http… https://i… 2024-06-24… "A VOL…
 8 <NA>                Amish T… "Comments"  http… <NA>       2024-06-24… "Many …
 9 Jeff Lunden         When yo… "They sit … http… https://n… 2024-06-16… "Ninet…
10 Grace Eliza Goodwin The Pop… "Pope Fran… http… https://i… 2024-06-15… "Pope …
# ℹ 90 more rows

# Get the news articles
from_date2 <- "2024-06-23"
tech_info2 <- query_news_api(query_keyword, from_date2, api_key)

[1] "Total results: 4274"

print(tech_info2) #Seems like by default, the API returns a maximum of 100 articles per request only.

# A tibble: 100 × 7
   author           title       description url   urlToImage publishedAt content
   <chr>            <chr>       <chr>       <chr> <chr>      <chr>       <chr>  
 1 Graeme Hanna     ‘Robot pil… "A cutting… http… https://r… 2024-06-25… "A cut…
 2 Jake Epstein     Ground rob… "Ukraine i… http… https://i… 2024-06-24… "A VOL…
 3 <NA>             Amish Tech… "Comments"  http… <NA>       2024-06-24… "Many …
 4 Mia Sato         Major reco… "Music ind… http… https://c… 2024-06-24… "Major…
 5 Dave Rowntree    Build Your… "[Luizão] … http… https://h… 2024-06-24… "[Luiz…
 6 Matt Burgess     Red Tape I… "With cybe… http… https://m… 2024-06-24… "I can…
 7 Graeme Hanna     MGM-owned … "LeoVegas … http… https://r… 2024-06-25… "LeoVe…
 8 Giordano Beretta PostScript… "Musings —… http… <NA>       2024-06-23… "Back …
 9 Ben Glickman     Carmakers … "Industry … http… https://i… 2024-06-24… "A tra…
10 Benjamin Mayo    EU says Ap… "The Europ… http… https://i… 2024-06-24… "The E…
# ℹ 90 more rows
